Le manque de temps,60
La technicité,54
Le manque de formation des équipes,53
La nature de notre activité d’arts vivants et/ou contemporains,37
La déshumanisation,26
L’impact écologique caché,23
Le modèle économique du numérique,20
Le manque d’information spécifique à notre secteur,18
Le risque d’appauvrissement culturel,13
Autre,10
Je n’identifie pas de frein au développement du numérique dans ma structure,6