Des formations traitant des outils et/ou des cultures numériques sont-elles organisées et/ou suivies dans votre structure ?,Depuis moins d’1 an,Depuis plus d’1 an mais moins de 3 ans,Depuis 3 à 5 ans,Depuis plus de 5 ans,"De façon temporaire, en rapport à la crise","Non, mais c’est en projet / en cours de création",Non et ce n’est pas prévu
Formations/sensibilisation conçues et organisées par les équipes de la structure,9,13,7,8,4,14,44
Formations en intra-organisationnel via un prestataire extérieur,13,15,7,9,2,13,42
Participation à des formations externes (multi-organisations) via un prestataire extérieur,10,17,10,13,3,15,33
Formations via la participation à des événements professionnels liés au numérique,8,15,8,10,3,15,41
"Formations via une veille active, l’échange avec des pairs (réseaux spécialisés), la visite de lieux inspirants",8,18,9,18,5,15,28