<?xml version="1.0" standalone="no"?>
<!DOCTYPE svg PUBLIC "-//W3C//DTD SVG 20010904//EN"
 "http://www.w3.org/TR/2001/REC-SVG-20010904/DTD/svg10.dtd">
<svg version="1.0" xmlns="http://www.w3.org/2000/svg"
 width="270.000000pt" height="270.000000pt" viewBox="0 0 270.000000 270.000000"
 preserveAspectRatio="xMidYMid meet">
<metadata>
Created by potrace 1.14, written by Peter Selinger 2001-2017
</metadata>
<g transform="translate(0.000000,270.000000) scale(0.100000,-0.100000)"
fill="#000000" stroke="none">
<path d="M42 2518 l3 -143 140 0 140 0 0 140 0 140 -143 3 -143 3 3 -143z"/>
<path d="M372 2518 l3 -143 143 -3 142 -3 0 146 0 145 -145 0 -146 0 3 -142z"/>
<path d="M710 2515 l0 -146 143 3 142 3 3 143 3 142 -146 0 -145 0 0 -145z"/>
<path d="M1042 2518 l3 -143 143 -3 142 -3 0 146 0 145 -145 0 -146 0 3 -142z"/>
<path d="M1382 2518 l3 -143 140 0 140 0 3 143 3 142 -146 0 -146 0 3 -142z"/>
<path d="M1720 2515 l0 -145 140 0 140 0 0 145 0 145 -140 0 -140 0 0 -145z"/>
<path d="M2052 2518 l3 -143 140 0 140 0 3 143 3 142 -146 0 -146 0 3 -142z"/>
<path d="M2390 2515 l0 -145 140 0 140 0 0 145 0 145 -140 0 -140 0 0 -145z"/>
<path d="M40 2185 l0 -145 145 0 146 0 -3 143 -3 142 -142 3 -143 3 0 -146z"/>
<path d="M377 2323 c-4 -3 -7 -69 -7 -145 l0 -138 145 0 145 0 0 145 0 145
-138 0 c-76 0 -142 -3 -145 -7z"/>
<path d="M710 2185 l0 -145 145 0 146 0 -3 143 -3 142 -142 3 -143 3 0 -146z"/>
<path d="M1047 2323 c-4 -3 -7 -69 -7 -145 l0 -138 145 0 145 0 0 145 0 145
-138 0 c-76 0 -142 -3 -145 -7z"/>
<path d="M1387 2324 c-4 -4 -7 -70 -7 -146 l0 -138 145 0 146 0 -3 143 -3 142
-136 3 c-74 1 -138 -1 -142 -4z"/>
<path d="M1719 2326 c-2 -2 -3 -68 -1 -145 l3 -141 140 0 139 0 0 145 0 145
-138 0 c-76 0 -141 -2 -143 -4z"/>
<path d="M2057 2324 c-4 -4 -7 -70 -7 -146 l0 -138 145 0 146 0 -3 143 -3 142
-136 3 c-74 1 -138 -1 -142 -4z"/>
<path d="M2390 2185 l0 -145 139 0 140 0 3 135 c2 75 2 140 0 145 -2 6 -61 10
-143 10 l-139 0 0 -145z"/>
<path d="M47 1313 c-4 -3 -7 -66 -7 -140 l0 -133 140 0 140 0 0 140 0 140
-133 0 c-74 0 -137 -3 -140 -7z"/>
<path d="M380 1180 l0 -140 140 0 141 0 -3 138 -3 137 -137 3 -138 3 0 -141z"/>
<path d="M717 1314 c-4 -4 -7 -67 -7 -141 l0 -133 140 0 141 0 -3 138 -3 137
-130 3 c-72 2 -134 0 -138 -4z"/>
<path d="M1055 1312 c-3 -3 -5 -65 -5 -139 l0 -133 140 0 141 0 -3 138 -3 137
-132 1 c-73 1 -135 -1 -138 -4z"/>
<path d="M1386 1304 c-4 -10 -6 -73 -5 -141 l1 -123 139 0 139 0 0 139 0 139
-134 1 c-118 2 -134 0 -140 -15z"/>
<path d="M1727 1314 c-4 -4 -7 -67 -7 -141 l0 -133 140 0 141 0 -3 138 -3 137
-131 3 c-71 1 -133 -1 -137 -4z"/>
<path d="M2063 1314 c-10 -4 -13 -42 -13 -140 l0 -134 140 0 c77 0 140 3 140
8 1 4 1 66 2 137 l0 130 -128 2 c-71 1 -135 -1 -141 -3z"/>
<path d="M2397 1314 c-4 -4 -7 -67 -7 -141 l0 -133 140 0 141 0 -3 138 -3 137
-130 3 c-72 2 -134 0 -138 -4z"/>
<path d="M40 840 l0 -140 140 0 140 0 0 140 0 140 -140 0 -140 0 0 -140z"/>
<path d="M380 840 l0 -140 140 0 140 0 0 140 0 140 -140 0 -140 0 0 -140z"/>
<path d="M710 840 l0 -140 140 0 140 0 0 140 0 140 -140 0 -140 0 0 -140z"/>
<path d="M1050 840 l0 -140 140 0 140 0 0 140 0 140 -140 0 -140 0 0 -140z"/>
<path d="M1382 843 l3 -138 138 -3 137 -3 0 141 0 140 -140 0 -141 0 3 -137z"/>
<path d="M1720 840 l0 -140 140 0 140 0 0 140 0 140 -140 0 -140 0 0 -140z"/>
<path d="M2050 840 l0 -140 139 0 140 0 3 124 c2 68 2 131 0 140 -3 14 -22 16
-143 16 l-139 0 0 -140z"/>
<path d="M2390 840 l0 -140 140 0 140 0 0 140 0 140 -140 0 -140 0 0 -140z"/>
<path d="M42 508 l3 -143 138 -3 137 -3 0 146 0 145 -140 0 -141 0 3 -142z"/>
<path d="M380 505 l0 -145 140 0 140 0 0 145 0 145 -140 0 -140 0 0 -145z"/>
<path d="M710 505 l0 -145 139 0 140 0 3 141 c2 77 1 143 -1 145 -2 2 -67 4
-143 4 l-138 0 0 -145z"/>
<path d="M1050 505 l0 -145 140 0 140 0 0 145 0 145 -140 0 -140 0 0 -145z"/>
<path d="M1384 637 c-2 -7 -3 -71 -2 -143 l3 -129 134 -3 c101 -2 136 1 143
10 9 15 11 239 2 262 -5 14 -27 16 -140 16 -101 0 -136 -3 -140 -13z"/>
<path d="M1720 505 l0 -145 140 0 140 0 0 145 0 145 -140 0 -140 0 0 -145z"/>
<path d="M2052 508 l3 -143 140 0 140 0 0 140 0 140 -143 3 -143 3 3 -143z"/>
<path d="M2390 505 l0 -145 140 0 140 0 0 145 0 145 -140 0 -140 0 0 -145z"/>
<path d="M40 170 l0 -140 140 0 140 0 0 140 0 140 -140 0 -140 0 0 -140z"/>
<path d="M380 170 l0 -140 140 0 140 0 0 140 0 140 -140 0 -140 0 0 -140z"/>
<path d="M710 170 l0 -140 143 0 142 0 -1 58 c-1 31 -2 94 -3 140 l-1 82 -140
0 -140 0 0 -140z"/>
<path d="M1050 170 l0 -140 140 0 140 0 0 140 0 140 -140 0 -140 0 0 -140z"/>
<path d="M1380 170 l0 -141 143 3 142 3 0 135 0 135 -142 3 -143 3 0 -141z"/>
<path d="M1720 170 l0 -140 140 0 140 0 0 140 0 140 -140 0 -140 0 0 -140z"/>
<path d="M2050 170 l0 -140 145 0 145 0 0 140 0 140 -145 0 -145 0 0 -140z"/>
<path d="M2390 170 l0 -140 140 0 140 0 0 140 0 140 -140 0 -140 0 0 -140z"/>
</g>
</svg>
