« Art et création »,62
« Art en territoire »,27
"« Art, enfance, jeunesse »",12
« Art et création »,62
« Art en territoire »,27
"« Art, enfance, jeunesse »",12
« Art et création »,62
« Art en territoire »,27
"« Art, enfance, jeunesse »",12