Sirius,23
4D / La billetterie /…,18
Autre,12
Rodrigue,11
Mapado,8
Secutix,6
Digitick / Seeticket,6
Weezevent,3
Aparté / Kyro Concept,3
So Ticket,3
Tickboss,3
3e Acte / Satori,3
Supersoniks,2