Les outils collaboratifs suivants sont-ils utilisés par les équipes ?,"Oui, à l’échelle de toute la structure","Oui, dans certains services",Non
"Partage de fichiers (Google Drive, Dropbox…) et serveur à distance",69,28,3
Outils de planification (agenda partagé…),74,19,7
"Gestion de projets (Freedcamp, Trello, Asana…)",9,25,66
"Bases de données partagées (Filemaker partagé entre services, CRM…)",33,36,31
"Outils de visioconférence (Zoom, Teams…)",78,21,
"Outils conversationnels (Slack, Whatsapp…)",40,35,26
Logiciels métiers en mode SAAS ou cloud (accessibles à distance),30,30,41