Votre structure propose-t-elle ou a-t-elle déjà proposé les actions et contenus numériques suivants ?,"Oui, depuis moins d’1 an","Oui, depuis plus d’1 an mais moins de 3 ans","Oui, depuis 3 à 5 ans","Oui, depuis plus de 5 ans","Oui, de façon temporaire, en rapport à la crise sanitaire","Oui, c’est en projet / en cours de création",Non
"Vidéos promotionnelles (teaser, extraits…)",6,20,19,46,,,8
"Vidéos courtes autour de la programmation (interview, reportage…)",10,25,19,29,,5,11
"Autres vidéos courtes (coulisses du lieu, paroles des équipes, des spectateurs…)",12,19,14,18,3,10,24
"Vidéos longues (documentaires, reportages…)",7,8,10,14,,3,57
Podcast,12,14,6,2,,7,57
"Articles (blog, web-mag)",5,11,7,18,,4,54
"Curation de contenus existants autour de la programmation (podcast, vidéo, articles non produits en interne ou commandés)",9,17,12,16,,4,41
Relais de contenus et d’initiatives numériques d’autres institutions,7,16,13,18,6,,40
"MOOC, tutoriels, didacticiel",3,5,,,,3,86
Cours / Ateliers en direct,10,6,2,,10,,69
"Rencontres, conférences et masterclass en direct",16,10,3,5,7,4,55
Dossiers pédagogiques,3,10,13,33,,2,38
Kit pédagogiques transmedia,4,5,5,7,,7,71
Visites virtuelles du lieu,5,5,3,9,2,10,66
Visite en direct avec médiation,5,3,,2,3,5,81
Jeux d’acquisition de publics / d’animation de la communauté,6,7,8,6,3,4,67
Jeux pédagogiques / de médiation,8,6,7,5,5,3,67