Site dédié à un festival / un cycle,39
Site dédié à un projet de l’établissement,32
Autre,20
Site proposant un service numérique spécifique,20
Site dédié à l’action culturelle,15
Site dédié à un spectacle/une exposition,5
Blog du lieu,5