Une/Des mission(s) liée(s) au numérique est/sont présente(s) dans la fiche de poste de certains membres de l’équipe,64
Certaines personnes assurent des missions liées au numérique sans que cela ne soit formalisé dans leur fiche de poste,35
Responsable / Chargé·e de communication numérique,30
Les missions liées au numérique sont assurées par des personnes externes (freelance par exemple),20
Community manager,19
Webmaster,16
Responsable informatique / DSI (Direction de l’informatique),13
Responsable / Chargé de production de contenus,11
Responsable / Chargé·e du multimédia,9
Responsable / Chargé·e de (web)marketing,9
Aucun poste / aucune mission lié(e) au numérique n’est présent(e) dans la structure,7
Autre intitulé de poste lié spécifiquement au numérique,6