Votre structure utilise-t-elle les technologies suivantes pour améliorer l’accessibilité des personnes en situation de handicap au lieu et/ou aux œuvres et actions proposées ?,"Oui, à chaque spectacle / évènement / exposition","Oui, pour certains spectacles / évènements / expositions identifiés","Non, jamais ou quasiment jamais"
Lunettes de surtitrage individuelles,,3,97
Surtitrage collectif,2,31,65
Audiodescription,,30,69
Dispositif vibrant individuel (ex : SubPac / sac à dos permettant,,7,89
Dispositif vibrant collectif (ex : plancher vibrant),,,99
Boucle magnétique dans les espaces d’accueil,11,4,85
Boucle magnétique collective en salle,11,12,77
Boucle magnétique individuelle,11,11,79
Service numérique d’aide à la mobilité,,2,97
Audioguide d’accessibilité,,7,92