Dans quelle mesure les éléments suivants sont-ils intégrés dans la mise en œuvre de cette programmation en ligne ?,Totalement intégré,Plutôt intégré,Plutôt pas intégré,Pas du tout intégré
Une dimension interactive,9,32,28,32
"Un travail sur la réception : médiation en amont/aval, durée, ciblage des contenus",9,39,29,23
Une visibilité importante grâce à la communication,29,54,10,7
Un développement de l’audience via l’équipe de relations avec les publics,13,48,22,17