"Oui, en tant que structure d’accueil en résidence",58
"Oui, en tant que coproducteur",52
"Oui, d’une autre manière (accompagnement/ressources, mise en réseau, etc.)",30
"Oui, en tant que producteur délégué",19
Non,15