,Action maintenue,Action abandonnée,Incertitude
Jeux pédagogique / de médiation,77,4,19
Jeux d’acquisition de publics / d’animation de la communauté,84,2,14
Visite en direct avec médiation,68,4,28
Visites virtuelles du lieu,68,4,28
Kit pédagogiques transmedia,88,,11
Dossiers pédagogiques,97,1,2
"Recontres, conférences et masterclass en direct",71,6,23
Cours / Ateliers en direct,42,21,37
"MOOC, tutoriels, didacticiels",73,,27
Relais de contenus et d’initiatives numériques d’autres institutions,92,1,7
"Curation de contenus existants autour de la programmation (podcast, vidéo, articles non produits en interne ou commandés)",88,1,11
"Articles (blog, web-mag)",85,3,12
Podcast,83,1,16
"Vidéos longues (documentaires, reportages…)",86,1,13
"Autres vidéos courtes (coulisses du lieu, paroles des équipes, des spectateurs…)",96,1,3
Vidéos courtes autour de la programmation,95,,5
"Vidéos promotionnelles (teaser, extraits…)",97,,3