Qui réalise ces actions et/ou contenus ? (plusieurs réponses possibles),L’équipe de communication de la structure,L’équipe de RP de la structure,La direction de la structure,Un/des artiste(s) programmé(s) dans la saison de la structure,Le/les artiste(s) concerné(s) par le spectacle / l’exposition / l’événement correspondant,Un artiste associé du lieu / en résidence,Un prestataire extérieur à la structure,Autre
"Vidéos promotionnelles (teaser, extraits…)",43,6,5,7,9,3,24,3
"Vidéos courtes autour de la programmation (interview, reportage…)",47,9,5,6,6,3,20,4
"Autres vidéos courtes (coulisses du lieu, paroles des équipes, des spectateurs…)",49,12,5,5,4,3,17,4
"Vidéos longues (documentaires, reportages…)",31,6,6,6,6,6,33,7
Podcast,35,13,6,5,6,8,17,9
"Articles (blog, web-mag)",47,14,10,5,3,,10,7
"Curation de contenus existants autour de la programmation (podcast, vidéo, articles non produits en interne ou commandés)",46,12,10,5,4,4,12,6
Relais de contenus et d’initiatives numériques d’autres institutions,62,13,8,3,4,,3,4
"MOOC, tutoriels, didacticiel",29,19,,,,,,27
Cours / Ateliers en direct,23,24,,9,9,8,9,9
"Rencontres, conférences et masterclass en direct",31,14,11,5,10,5,11,11
Dossiers pédagogiques,25,47,4,,6,,3,12
Kit pédagogiques transmedia,25,39,4,,4,,5,12
Visites virtuelles du lieu,37,16,5,,,,31,9
Visite en direct avec médiation,26,46,8,,,,,11
Jeux d’acquisition de publics / d’animation de la communauté,55,20,,,,,9,6
Jeux pédagogiques / de médiation,29,33,5,4,5,4,,16