Votre structure est-elle présente sur les réseaux sociaux et plateformes suivants ?,"Oui, au nom de la structure","Oui, au nom du.de la directeur·trice","Oui, au nom d’une personne de l’équipe","Oui, à travers des comptes d’artistes ou de troupes/ballets associés",Non
Facebook,98,,,,
Twitter,68,,,,30
Instagram,87,,,,10
Youtube,77,,,,22
Dailymotion,7,,,2,92
Vimeo,32,,,,66
Tik Tok,5,,,,95
Snapchat,,,,,99
Twitch,2,,,,97
LinkedIn,31,3,4,,62
Pinterest,4,,2,,94
Soundcloud,25,,,,72