Les équipes manquent de temps,72
Les objectifs et les critères d’évaluation ne sont pas clairement établis,39
La structure n’a pas les compétences en interne pour réaliser ces évaluations,39
La structure manque de moyens pour solliciter des partenaires extérieurs,24
Autre,5