La production de contenus est incluse dans le budget communication,58
Nous n’avons pas de budget dédié à la production de contenus numériques,18
La production de contenus est incluse dans le budget artistique,12
Autre,5
Nous ne produisons pas de contenus numériques,5
La production de contenus est incluse dans un budget dédié à la production numérique,2