,"Oui, en permanence","Oui, ponctuellement","Non, jamais"
Bornes d’achat de places,1,4,95
"Dispositifs interactifs permettant l’expression des publics (projection d’un twitter wall, borne pour laisser un message écrit ou sonore, livre 1 d’or numérique type Guest views, borne à smileys de satisfaction type Opinyon…)",0,7,93
"Dispositifs d’information interactifs (borne d’information, visionnage de vidéos commandé par les visiteurs…)",5,10,85
Écrans d’information à l’intérieur du lieu,38,23,39
Information numérique sur la façade / à l’extérieur des locaux,9,10,81
Wifi libre et gratuit pour le public dans l’enceinte des locaux,38,17,45