La possibilité de garder le lien avec les publics,82
La diversification des formats de médiation et des contenus culturels,75
La possibilité de relier des gens éloignés (géographiquement ou sociologiquement) les uns des autres,67
Une plus grande accessibilité de la culture,57
L’appropriation possible des contenus par les publics,56
L’innovation,49
Une meilleure collaboration au sein de l’équipe,41
La viralité,41
Le gain de temps,30
Une plus grande horizontalité,22
Les opportunités économiques,14
Un moindre impact écologique,10
Autre,3
Je n’identifie pas d’avantage du numérique,2