Cette diffusion numérique sera-t-elle maintenue et/ou développée par votre structure lorsque la crise sanitaire sera terminée ?,Cette action sera maintenue et développée,Cette action sera maintenue au même niveau que pendant la crise,Cette action sera maintenue mais plus modestement que pendant la crise,Cette action sera abandonnée à l’issue de la crise,Nous ne savons pas si cette action sera maintenue
Diffusion de captation existante,28,8,19,13,32
Live-streaming ou faux-direct avec public,26,10,15,16,32
"Live-streaming ou faux-direct sans public, dans un format frontal",18,6,17,21,38
"Live-streaming ou faux-direct avec une écriture audiovisuelle spécifique pour le numérique (autre que format frontal scène/salle, interaction)",21,6,30,16,26
Événement conçu pour le web,27,6,23,10,34