Remplissage de la salle/de l’espace pour le spectacle/l’exposition à venir,46
Remplissage de la salle/de l’espace pour le spectacle/l’exposition à venir,44
Promotion pour les actions/événements organisés autour d’un spectacle/d’une exposition à venir dans la structure,38
Recrutement de nouveaux publics pour la structure,25
Création/fédération d’une communauté de publics autour de la structure,22
Présentation de spectacles/d’expositions/d’artistes,20
Sensibilisation / éducation artistique et culturelle de publics éloignés de la structure,19
Médiation avec des publics cibles,18
Fidélisation des publics existants de la structure,17
Démonstration de l’activité de la structure,13
Contenus complémentaires suite à un spectacle/une exposition,8
Test d’audience/de ciblage,6
Développement de la pratique amateur,5
Test de communication,4
Décodage de la programmation de la saison,3