Nous n’avons pas de cible prioritaire,36
Des publics à conquérir,28
"Les publics fidèles, des habitués du lieu, l’offre numérique permet de compléter leur expérience physique",20
"Les publics occasionnels du lieu, l’offre numérique permet de les fidéliser",12
"Des « non publics » du lieu, nous les touchons grâce à l’offre numérique exclusivement",3
Nous n’avons pas d’adresse aux publics en ligne,2