Une newsletter générale pour les différents évènements organisés par la structure,78
Une newsletter pour annoncer les spectacles/expositions à venir,66
"Une newsletter pour annoncer les actions/évènements hors spectacles/expositions (rencontres, ateliers…)",56
Ma structure ne propose pas de newsletter,4
"Oui, autre",3
Ma structure a proposé une newsletter mais ne la propose plus désormais,2