Le numérique nous permet de renouveler nos métiers et d’être créatifs dans nos actions,35
Le numérique fait partie de notre projet et de nos missions d’établissement culturel,22
Le numérique n’est pas encore formalisé mais c’est un projet à court ou moyen terme,22
"Le numérique, c'est flou au sein de notre structure mais cela fait partie de nos métiers",17
"Le numérique, ce n’est pas une préoccupation dans notre structure",5