"Non, et je ne connais pas ce dispositif",54
"Non, mais je connais ce dispositif",37
"Oui, de temps en temps (plus de 3 ans entre deux demandes)",5
"Oui, régulièrement (tous les 2-3 ans)",4
"Oui, chaque année",1