L’ensemble de l’équipe communication,46
1 ou 2 personnes de la communication,40
Autre,17
1 ou 2 personnes des relations publiques / médiation,16
L’ensemble de l’équipe relations publiques / médiation,14
L’ensemble des équipes,4