SN (scène nationale),24
CDN (Centre dramatique national),16
SMAC (Scène de musiques actuelles),14
FRAC (Fonds régional d’art contemporain),10
CACIN (Centre d’art contemporain d’intérêt national),8
PNC (Pôle national cirque),8
CDCN (Centre de développement chorégraphique national),8
CCN (Centre chorégraphique national),5
Opéra,3
CNAREP (Centre national des arts de la rue et de l’espace public),3
CNCM (Centre national de création musicale),2