"D’une manière générale, diriez-vous que la place du numérique, dans votre structure, a généré les transformations suivantes ?","Oui, depuis moins d’1 an","Oui, depuis plus d’1 an mais moins de 3 ans","Oui, depuis 3 à 5 ans","Oui, depuis plus de 5 ans","Oui, de façon temporaire, en rapport à la crise sanitaire","Oui, c’est en projet / en cours de création",Non
Il y a plus de transversalité entre les métiers et les services,6,22,20,10,4,8,30
"La montée en compétences des équipes passe par une culture de l’expérimentation (droit à l’erreur, itération, évaluation)",7,19,11,13,3,10,37
La stratégie de la structure est pensée de manière collective,6,18,8,11,4,10,43
Les modes de collaboration entre les membres de l’équipe sont plus agiles et adaptables,13,28,16,8,10,10,15
"La place du public dans le projet (contribution, gouvernance) a évolué",5,15,5,5,5,9,56