Je ne connais pas ces outils,36
"Cela permet d’optimiser la relation avec nos spectateurs (automatisation, segmentation, connaissance)",34
"Le principe est intéressant mais son utilisation n’est pas satisfaisante (performance de l’outil, fiabilité)",13
Je connais mais n’ai pas d’avis sur ces outils,10
"Le principe n’est pas en adéquation avec nos missions (intrusif, non éthique)",7