Votre structure fournit-elle…,"…oui, à tout le monde (permanents et non permanents)","…oui, à tous les permanents","…oui, mais seulement à certaines personnes","…oui, mais seulement à la direction",…non
Un ordinateur fixe,29,40,23,,7
Un ordinateur portable,11,18,62,5,5
Un smartphone,3,9,51,10,26