Le reporting sert à rédiger les bilans d’activité de la structure,70
Le reporting sert à transmettre des informations à la direction,43
Le reporting sert à transmettre des informations aux tutelles,36
Le reporting sert à faire des évaluations,35
Le reporting sert à échanger entre les différents services en réunion,28
Le reporting sert à faire des analyses des comportements des spectateurs,23
Le reporting sert à proposer des offres promotionnelles ciblées,19
Le reporting sert à envoyer des informations aux publics,19
Le reporting sert à mesurer des taux d’ouverture des emailings,9
Le reporting sert à négocier avec des partenaires extérieurs,2