Non,89
"Oui, comme médiation culturelle numérique en dehors d’un spectacle/une exposition précis(e)",4
"Oui, reflétant la programmation et/ou l’actualité du lieu",3
"Oui, autre",3
"Oui, autour d’un spectacle/une exposition",2