Sponsorisation sur les réseaux sociaux en interne,51
Achat publicitaire en ligne directement auprès des médias/sites,46
Ma structure ne réalise aucun type d’achats publicitaires en ligne,27
Sponsorisation sur les réseaux sociaux via un prestataire,13
Achat publicitaire en ligne via une agence,9
Investissement publicitaire en programmatique,8
Adwords,7